[gd_scene load_steps=9 format=2]

[ext_resource path="res://assets/tileset.tres" type="TileSet" id=1]
[ext_resource path="res://src/Actors/Player.tscn" type="PackedScene" id=2]
[ext_resource path="res://src/Actors/Enemy.tscn" type="PackedScene" id=3]
[ext_resource path="res://assets/background.png" type="Texture" id=4]
[ext_resource path="res://src/Objects/Coin.tscn" type="PackedScene" id=5]
[ext_resource path="res://src/Objects/Portal2D.tscn" type="PackedScene" id=6]
[ext_resource path="res://src/Levels/Level1.tscn" type="PackedScene" id=7]
[ext_resource path="res://src/Objects/Area Trigger.tscn" type="PackedScene" id=8]

[node name="LevelTemplate" type="Node2D"]
position = Vector2( 0, 300 )
__meta__ = {
"_edit_vertical_guides_": [ 3279.83 ]
}

[node name="CanvasLayer" type="CanvasLayer" parent="."]
layer = -128

[node name="Background" type="TextureRect" parent="CanvasLayer"]
anchor_right = 1.0
anchor_bottom = 1.0
texture = ExtResource( 4 )
__meta__ = {
"_edit_use_anchors_": false
}

[node name="TileMap" type="TileMap" parent="."]
tile_set = ExtResource( 1 )
cell_size = Vector2( 80, 80 )
collision_layer = 8
collision_mask = 0
format = 1
tile_data = PoolIntArray( 0, 0, 0, 1, 0, 0, 39, 0, 0, 65536, 0, 0, 65537, 0, 0, 65575, 0, 0, 65576, 0, 0, 131072, 0, 0, 131073, 0, 0, 131111, 0, 0, 131112, 0, 0, 196608, 0, 0, 196609, 0, 0, 196647, 0, 0, 196648, 0, 0, 262144, 0, 0, 262145, 0, 0, 262183, 0, 0, 262184, 0, 0, 327680, 0, 0, 327681, 0, 0, 327682, 0, 0, 327683, 0, 0, 327709, 0, 0, 327710, 0, 0, 327711, 0, 0, 327719, 0, 0, 327720, 0, 0, 393216, 0, 0, 393217, 0, 0, 393218, 0, 0, 393219, 0, 0, 393255, 0, 0, 393256, 0, 0, 458752, 0, 0, 458753, 0, 0, 458754, 0, 0, 458755, 0, 0, 458761, 0, 0, 458762, 0, 0, 458763, 0, 0, 458764, 0, 0, 458772, 0, 0, 458773, 0, 0, 458774, 0, 0, 458791, 0, 0, 458792, 0, 0, 524288, 0, 0, 524289, 0, 0, 524290, 0, 0, 524291, 0, 0, 524292, 0, 0, 524293, 0, 0, 524294, 0, 0, 524297, 0, 0, 524298, 0, 0, 524299, 0, 0, 524300, 0, 0, 524301, 0, 0, 524302, 0, 0, 524303, 0, 0, 524304, 0, 0, 524305, 0, 0, 524306, 0, 0, 524307, 0, 0, 524308, 0, 0, 524309, 0, 0, 524310, 0, 0, 524311, 0, 0, 524312, 0, 0, 524313, 0, 0, 524314, 0, 0, 524315, 0, 0, 524316, 0, 0, 524317, 0, 0, 524318, 0, 0, 524319, 0, 0, 524320, 0, 0, 524321, 0, 0, 524322, 0, 0, 524323, 0, 0, 524324, 0, 0, 524325, 0, 0, 524326, 0, 0, 524327, 0, 0, 524328, 0, 0, 589824, 0, 0, 589825, 0, 0, 589826, 0, 0, 589827, 0, 0, 589828, 0, 0, 589829, 0, 0, 589830, 0, 0, 589833, 0, 0, 589834, 0, 0, 589835, 0, 0, 589836, 0, 0, 589837, 0, 0, 589838, 0, 0, 589839, 0, 0, 589840, 0, 0, 589841, 0, 0, 589842, 0, 0, 589843, 0, 0, 589844, 0, 0, 589845, 0, 0, 589846, 0, 0, 589847, 0, 0, 589848, 0, 0, 589849, 0, 0, 589850, 0, 0, 589851, 0, 0, 589852, 0, 0, 589853, 0, 0, 589854, 0, 0, 589855, 0, 0, 589856, 0, 0, 589857, 0, 0, 589858, 0, 0, 589859, 0, 0, 589860, 0, 0, 589861, 0, 0, 589862, 0, 0, 589863, 0, 0, 589864, 0, 0 )

[node name="Player" parent="." instance=ExtResource( 2 )]
position = Vector2( 368.219, 461.974 )

[node name="Enemy" parent="." instance=ExtResource( 3 )]
position = Vector2( 1465.33, 631.13 )
speed = Vector2( 300, 1000 )

[node name="Enemy2" parent="." instance=ExtResource( 3 )]
position = Vector2( 2429.67, 371.689 )
speed = Vector2( 300, 1000 )

[node name="Coin" parent="." instance=ExtResource( 5 )]
position = Vector2( 837.728, 461.055 )

[node name="Coin2" parent="." instance=ExtResource( 5 )]
position = Vector2( 971.722, 461.055 )

[node name="Portal2D" parent="." instance=ExtResource( 6 )]
position = Vector2( 2166.02, 372.888 )
next_scene = ExtResource( 7 )

[node name="Area2D" parent="." instance=ExtResource( 8 )]
position = Vector2( 1191.3, 1227.69 )
sceneName = "LevelTemplate"
