[gd_scene load_steps=9 format=2]

[ext_resource path="res://assets/tileset.tres" type="TileSet" id=1]
[ext_resource path="res://src/Actors/Player.tscn" type="PackedScene" id=2]
[ext_resource path="res://src/Actors/Enemy.tscn" type="PackedScene" id=3]
[ext_resource path="res://assets/background.png" type="Texture" id=4]
[ext_resource path="res://src/Objects/Area Trigger.tscn" type="PackedScene" id=5]
[ext_resource path="res://src/Objects/Life Counter.tscn" type="PackedScene" id=6]
[ext_resource path="res://src/Objects/Portal2D.tscn" type="PackedScene" id=7]
[ext_resource path="res://src/Levels/Game Over.tscn" type="PackedScene" id=8]

[node name="LevelTemplate" type="Node2D"]
position = Vector2( 0, 300 )
__meta__ = {
"_edit_vertical_guides_": [ 3279.83 ]
}

[node name="CanvasLayer" type="CanvasLayer" parent="."]
layer = -128

[node name="TextureRect" type="TextureRect" parent="CanvasLayer"]
anchor_right = 1.0
anchor_bottom = 1.0
texture = ExtResource( 4 )
__meta__ = {
"_edit_use_anchors_": false
}

[node name="TileMap" type="TileMap" parent="."]
tile_set = ExtResource( 1 )
cell_size = Vector2( 80, 80 )
collision_layer = 8
collision_mask = 0
format = 1
tile_data = PoolIntArray( -458635, 0, 0, -458634, 0, 0, -393176, 0, 0, -393100, 0, 0, -393099, 0, 0, -393098, 0, 0, -327612, 0, 0, -327608, 0, 0, -327607, 0, 0, -327565, 0, 0, -327564, 0, 0, -327563, 0, 0, -327562, 0, 0, -262130, 0, 0, -262129, 0, 0, -262128, 0, 0, -262121, 0, 0, -262120, 0, 0, -262102, 0, 0, -262080, 0, 0, -262076, 0, 0, -262072, 0, 0, -262071, 0, 0, -262054, 0, 0, -262036, 0, 0, -262029, 0, 0, -262028, 0, 0, -262027, 0, 0, -262026, 0, 0, -262020, 0, 0, -262019, 0, 0, -262018, 0, 0, -196602, 0, 0, -196601, 0, 0, -196600, 0, 0, -196599, 0, 0, -196598, 0, 0, -196594, 0, 0, -196593, 0, 0, -196592, 0, 0, -196591, 0, 0, -196590, 0, 0, -196589, 0, 0, -196588, 0, 0, -196587, 0, 0, -196586, 0, 0, -196585, 0, 0, -196584, 0, 0, -196577, 0, 0, -196576, 0, 0, -196575, 0, 0, -196574, 0, 0, -196573, 0, 0, -196572, 0, 0, -196571, 0, 0, -196544, 0, 0, -196540, 0, 0, -196536, 0, 0, -196535, 0, 0, -196518, 0, 0, -196501, 0, 0, -196500, 0, 0, -196493, 0, 0, -196492, 0, 0, -196491, 0, 0, -196490, 0, 0, -131012, 0, 0, -131008, 0, 0, -131004, 0, 0, -131000, 0, 0, -130999, 0, 0, -130995, 0, 0, -130987, 0, 0, -130982, 0, 0, -130966, 0, 0, -130965, 0, 0, -130964, 0, 0, -130957, 0, 0, -130956, 0, 0, -130955, 0, 0, -130954, 0, 0, -130905, 0, 0, -130897, 0, 0, -65536, 0, 0, -65535, 0, 0, -65491, 0, 0, -65490, 0, 0, -65489, 0, 0, -65488, 0, 0, -65487, 0, 0, -65486, 0, 0, -65481, 0, 0, -65480, 0, 0, -65476, 0, 0, -65472, 0, 0, -65468, 0, 0, -65464, 0, 0, -65463, 0, 0, -65459, 0, 0, -65458, 0, 0, -65457, 0, 0, -65456, 0, 0, -65455, 0, 0, -65454, 0, 0, -65453, 0, 0, -65452, 0, 0, -65451, 0, 0, -65446, 0, 0, -65445, 0, 0, -65444, 0, 0, -65443, 0, 0, -65442, 0, 0, -65441, 0, 0, -65440, 0, 0, -65439, 0, 0, -65438, 0, 0, -65437, 0, 0, -65436, 0, 0, -65435, 0, 0, -65431, 0, 0, -65430, 0, 0, -65429, 0, 0, -65428, 0, 0, -65421, 0, 0, -65420, 0, 0, -65419, 0, 0, -65418, 0, 0, -65417, 0, 0, -65416, 0, 0, -65415, 0, 0, -65414, 0, 0, -65413, 0, 0, -65412, 0, 0, -65411, 0, 0, -65410, 0, 0, -65409, 0, 0, -65408, 0, 0, -65407, 0, 0, -65400, 0, 0, -65399, 0, 0, -65398, 0, 0, -65397, 0, 0, -65391, 0, 0, -65386, 0, 0, -65385, 0, 0, -65384, 0, 0, -65379, 0, 0, -65378, 0, 0, -65377, 0, 0, -65376, 0, 0, -65375, 0, 0, -65369, 0, 0, -65368, 0, 0, -65367, 0, 0, -65366, 0, 0, -65365, 0, 0, -65364, 0, 0, -65363, 0, 0, -65362, 0, 0, -65361, 0, 0, -65357, 0, 0, -65356, 0, 0, 0, 0, 0, 1, 0, 0, 65536, 0, 0, 65537, 0, 0, 65571, 0, 0, 65572, 0, 0, 65573, 0, 0, 65574, 0, 0, 65575, 0, 0, 65576, 0, 0, 131072, 0, 0, 131073, 0, 0, 131255, 0, 0, 131256, 0, 0, 196608, 0, 0, 196609, 0, 0, 196791, 0, 0, 196792, 0, 0, 262144, 0, 0, 262145, 0, 0, 262154, 0, 0, 262155, 0, 0, 262156, 0, 0, 262157, 0, 0, 262158, 0, 0, 262159, 0, 0, 262160, 0, 0, 262161, 0, 0, 262162, 0, 0, 262163, 0, 0, 262164, 0, 0, 262189, 0, 0, 262199, 0, 0, 262200, 0, 0, 262201, 0, 0, 262202, 0, 0, 262203, 0, 0, 262209, 0, 0, 262210, 0, 0, 262211, 0, 0, 262212, 0, 0, 262221, 0, 0, 262222, 0, 0, 262223, 0, 0, 262224, 0, 0, 262225, 0, 0, 262226, 0, 0, 262227, 0, 0, 262265, 0, 0, 262266, 0, 0, 262267, 0, 0, 262268, 0, 0, 262269, 0, 0, 262270, 0, 0, 262271, 0, 0, 262272, 0, 0, 262273, 0, 0, 262274, 0, 0, 262282, 0, 0, 262283, 0, 0, 262284, 0, 0, 262285, 0, 0, 262286, 0, 0, 262287, 0, 0, 262288, 0, 0, 262289, 0, 0, 262290, 0, 0, 262291, 0, 0, 262292, 0, 0, 262293, 0, 0, 262294, 0, 0, 262295, 0, 0, 262298, 0, 0, 262320, 0, 0, 262321, 0, 0, 262322, 0, 0, 262323, 0, 0, 262327, 0, 0, 262328, 0, 0, 327680, 0, 0, 327681, 0, 0, 327682, 0, 0, 327683, 0, 0, 327684, 0, 0, 327690, 0, 0, 327691, 0, 0, 327692, 0, 0, 327693, 0, 0, 327694, 0, 0, 327695, 0, 0, 327696, 0, 0, 327697, 0, 0, 327698, 0, 0, 327699, 0, 0, 327700, 0, 0, 327703, 0, 0, 327704, 0, 0, 327715, 0, 0, 327716, 0, 0, 327717, 0, 0, 327718, 0, 0, 327719, 0, 0, 327720, 0, 0, 327725, 0, 0, 327726, 0, 0, 327735, 0, 0, 327736, 0, 0, 327737, 0, 0, 327738, 0, 0, 327739, 0, 0, 327745, 0, 0, 327746, 0, 0, 327747, 0, 0, 327748, 0, 0, 327757, 0, 0, 327758, 0, 0, 327759, 0, 0, 327760, 0, 0, 327761, 0, 0, 327762, 0, 0, 327763, 0, 0, 327786, 0, 0, 327787, 0, 0, 327788, 0, 0, 327789, 0, 0, 327790, 0, 0, 327791, 0, 0, 327792, 0, 0, 327793, 0, 0, 327794, 0, 0, 327795, 0, 0, 327796, 0, 0, 327797, 0, 0, 327798, 0, 0, 327799, 0, 0, 327800, 0, 0, 327801, 0, 0, 327802, 0, 0, 327803, 0, 0, 327804, 0, 0, 327805, 0, 0, 327806, 0, 0, 327807, 0, 0, 327808, 0, 0, 327809, 0, 0, 327810, 0, 0, 327818, 0, 0, 327819, 0, 0, 327820, 0, 0, 327821, 0, 0, 327822, 0, 0, 327823, 0, 0, 327824, 0, 0, 327825, 0, 0, 327826, 0, 0, 327827, 0, 0, 327828, 0, 0, 327829, 0, 0, 327830, 0, 0, 327831, 0, 0, 327853, 0, 0, 327854, 0, 0, 327855, 0, 0, 327856, 0, 0, 327857, 0, 0, 327858, 0, 0, 327859, 0, 0, 327863, 0, 0, 327864, 0, 0, 393216, 0, 0, 393217, 0, 0, 393218, 0, 0, 393219, 0, 0, 393220, 0, 0, 393226, 0, 0, 393227, 0, 0, 393228, 0, 0, 393229, 0, 0, 393230, 0, 0, 393231, 0, 0, 393232, 0, 0, 393233, 0, 0, 393234, 0, 0, 393235, 0, 0, 393236, 0, 0, 393239, 0, 0, 393240, 0, 0, 393261, 0, 0, 393262, 0, 0, 393263, 0, 0, 393264, 0, 0, 393271, 0, 0, 393272, 0, 0, 393273, 0, 0, 393274, 0, 0, 393275, 0, 0, 393281, 0, 0, 393282, 0, 0, 393283, 0, 0, 393284, 0, 0, 393287, 0, 0, 393293, 0, 0, 393294, 0, 0, 393295, 0, 0, 393296, 0, 0, 393297, 0, 0, 393298, 0, 0, 393299, 0, 0, 393322, 0, 0, 393323, 0, 0, 393324, 0, 0, 393325, 0, 0, 393326, 0, 0, 393327, 0, 0, 393328, 0, 0, 393329, 0, 0, 393330, 0, 0, 393331, 0, 0, 393332, 0, 0, 393333, 0, 0, 393334, 0, 0, 393335, 0, 0, 393336, 0, 0, 393337, 0, 0, 393338, 0, 0, 393339, 0, 0, 393340, 0, 0, 393341, 0, 0, 393342, 0, 0, 393343, 0, 0, 393344, 0, 0, 393345, 0, 0, 393346, 0, 0, 393352, 0, 0, 393353, 0, 0, 393354, 0, 0, 393355, 0, 0, 393356, 0, 0, 393357, 0, 0, 393358, 0, 0, 393359, 0, 0, 393360, 0, 0, 393361, 0, 0, 393362, 0, 0, 393363, 0, 0, 393364, 0, 0, 393365, 0, 0, 393366, 0, 0, 393367, 0, 0, 393374, 0, 0, 393375, 0, 0, 393386, 0, 0, 393387, 0, 0, 393388, 0, 0, 393389, 0, 0, 393390, 0, 0, 393391, 0, 0, 393392, 0, 0, 393393, 0, 0, 393394, 0, 0, 393395, 0, 0, 393399, 0, 0, 393400, 0, 0, 458752, 0, 0, 458753, 0, 0, 458754, 0, 0, 458755, 0, 0, 458756, 0, 0, 458762, 0, 0, 458763, 0, 0, 458764, 0, 0, 458765, 0, 0, 458766, 0, 0, 458767, 0, 0, 458768, 0, 0, 458769, 0, 0, 458770, 0, 0, 458771, 0, 0, 458772, 0, 0, 458775, 0, 0, 458776, 0, 0, 458797, 0, 0, 458798, 0, 0, 458799, 0, 0, 458800, 0, 0, 458801, 0, 0, 458807, 0, 0, 458808, 0, 0, 458809, 0, 0, 458810, 0, 0, 458811, 0, 0, 458817, 0, 0, 458818, 0, 0, 458819, 0, 0, 458820, 0, 0, 458823, 0, 0, 458829, 0, 0, 458830, 0, 0, 458831, 0, 0, 458832, 0, 0, 458833, 0, 0, 458834, 0, 0, 458835, 0, 0, 458847, 0, 0, 458858, 0, 0, 458859, 0, 0, 458860, 0, 0, 458861, 0, 0, 458862, 0, 0, 458863, 0, 0, 458864, 0, 0, 458865, 0, 0, 458866, 0, 0, 458867, 0, 0, 458868, 0, 0, 458869, 0, 0, 458870, 0, 0, 458871, 0, 0, 458872, 0, 0, 458873, 0, 0, 458874, 0, 0, 458875, 0, 0, 458876, 0, 0, 458877, 0, 0, 458878, 0, 0, 458879, 0, 0, 458880, 0, 0, 458881, 0, 0, 458882, 0, 0, 458888, 0, 0, 458889, 0, 0, 458890, 0, 0, 458891, 0, 0, 458892, 0, 0, 458893, 0, 0, 458894, 0, 0, 458895, 0, 0, 458896, 0, 0, 458897, 0, 0, 458898, 0, 0, 458899, 0, 0, 458900, 0, 0, 458901, 0, 0, 458902, 0, 0, 458903, 0, 0, 458921, 0, 0, 458922, 0, 0, 458923, 0, 0, 458924, 0, 0, 458925, 0, 0, 458926, 0, 0, 458927, 0, 0, 458928, 0, 0, 458929, 0, 0, 458930, 0, 0, 458931, 0, 0, 458935, 0, 0, 458936, 0, 0, 524288, 0, 0, 524289, 0, 0, 524290, 0, 0, 524291, 0, 0, 524292, 0, 0, 524293, 0, 0, 524294, 0, 0, 524295, 0, 0, 524296, 0, 0, 524297, 0, 0, 524298, 0, 0, 524299, 0, 0, 524300, 0, 0, 524301, 0, 0, 524302, 0, 0, 524303, 0, 0, 524304, 0, 0, 524305, 0, 0, 524306, 0, 0, 524307, 0, 0, 524308, 0, 0, 524309, 0, 0, 524310, 0, 0, 524311, 0, 0, 524312, 0, 0, 524313, 0, 0, 524314, 0, 0, 524315, 0, 0, 524316, 0, 0, 524317, 0, 0, 524318, 0, 0, 524319, 0, 0, 524320, 0, 0, 524321, 0, 0, 524322, 0, 0, 524323, 0, 0, 524324, 0, 0, 524325, 0, 0, 524326, 0, 0, 524327, 0, 0, 524328, 0, 0, 524333, 0, 0, 524334, 0, 0, 524335, 0, 0, 524336, 0, 0, 524337, 0, 0, 524338, 0, 0, 524342, 0, 0, 524343, 0, 0, 524344, 0, 0, 524345, 0, 0, 524346, 0, 0, 524347, 0, 0, 524348, 0, 0, 524349, 0, 0, 524350, 0, 0, 524351, 0, 0, 524352, 0, 0, 524353, 0, 0, 524354, 0, 0, 524355, 0, 0, 524356, 0, 0, 524357, 0, 0, 524358, 0, 0, 524359, 0, 0, 524360, 0, 0, 524361, 0, 0, 524362, 0, 0, 524363, 0, 0, 524364, 0, 0, 524365, 0, 0, 524366, 0, 0, 524367, 0, 0, 524368, 0, 0, 524369, 0, 0, 524370, 0, 0, 524371, 0, 0, 524372, 0, 0, 524373, 0, 0, 524374, 0, 0, 524375, 0, 0, 524376, 0, 0, 524377, 0, 0, 524378, 0, 0, 524379, 0, 0, 524380, 0, 0, 524381, 0, 0, 524382, 0, 0, 524383, 0, 0, 524388, 0, 0, 524389, 0, 0, 524393, 0, 0, 524394, 0, 0, 524395, 0, 0, 524396, 0, 0, 524397, 0, 0, 524398, 0, 0, 524399, 0, 0, 524400, 0, 0, 524401, 0, 0, 524402, 0, 0, 524403, 0, 0, 524404, 0, 0, 524405, 0, 0, 524406, 0, 0, 524407, 0, 0, 524408, 0, 0, 524409, 0, 0, 524410, 0, 0, 524411, 0, 0, 524412, 0, 0, 524413, 0, 0, 524414, 0, 0, 524415, 0, 0, 524416, 0, 0, 524417, 0, 0, 524418, 0, 0, 524419, 0, 0, 524420, 0, 0, 524421, 0, 0, 524422, 0, 0, 524423, 0, 0, 524424, 0, 0, 524425, 0, 0, 524426, 0, 0, 524427, 0, 0, 524428, 0, 0, 524429, 0, 0, 524430, 0, 0, 524431, 0, 0, 524432, 0, 0, 524433, 0, 0, 524434, 0, 0, 524435, 0, 0, 524436, 0, 0, 524437, 0, 0, 524438, 0, 0, 524439, 0, 0, 524457, 0, 0, 524458, 0, 0, 524459, 0, 0, 524460, 0, 0, 524461, 0, 0, 524462, 0, 0, 524463, 0, 0, 524464, 0, 0, 524465, 0, 0, 524466, 0, 0, 524467, 0, 0, 524471, 0, 0, 524472, 0, 0, 589824, 0, 0, 589825, 0, 0, 589826, 0, 0, 589827, 0, 0, 589828, 0, 0, 589829, 0, 0, 589830, 0, 0, 589831, 0, 0, 589832, 0, 0, 589833, 0, 0, 589834, 0, 0, 589835, 0, 0, 589836, 0, 0, 589837, 0, 0, 589838, 0, 0, 589839, 0, 0, 589840, 0, 0, 589841, 0, 0, 589842, 0, 0, 589843, 0, 0, 589844, 0, 0, 589845, 0, 0, 589846, 0, 0, 589847, 0, 0, 589848, 0, 0, 589849, 0, 0, 589850, 0, 0, 589851, 0, 0, 589852, 0, 0, 589853, 0, 0, 589854, 0, 0, 589855, 0, 0, 589856, 0, 0, 589857, 0, 0, 589858, 0, 0, 589859, 0, 0, 589860, 0, 0, 589861, 0, 0, 589862, 0, 0, 589863, 0, 0, 589864, 0, 0, 589869, 0, 0, 589870, 0, 0, 589871, 0, 0, 589872, 0, 0, 589873, 0, 0, 589874, 0, 0, 589878, 0, 0, 589879, 0, 0, 589880, 0, 0, 589881, 0, 0, 589882, 0, 0, 589883, 0, 0, 589884, 0, 0, 589885, 0, 0, 589886, 0, 0, 589887, 0, 0, 589888, 0, 0, 589889, 0, 0, 589890, 0, 0, 589891, 0, 0, 589892, 0, 0, 589893, 0, 0, 589894, 0, 0, 589895, 0, 0, 589896, 0, 0, 589897, 0, 0, 589898, 0, 0, 589899, 0, 0, 589900, 0, 0, 589901, 0, 0, 589902, 0, 0, 589903, 0, 0, 589904, 0, 0, 589905, 0, 0, 589906, 0, 0, 589907, 0, 0, 589908, 0, 0, 589909, 0, 0, 589910, 0, 0, 589911, 0, 0, 589912, 0, 0, 589913, 0, 0, 589914, 0, 0, 589915, 0, 0, 589916, 0, 0, 589917, 0, 0, 589918, 0, 0, 589919, 0, 0, 589924, 0, 0, 589925, 0, 0, 589929, 0, 0, 589930, 0, 0, 589931, 0, 0, 589932, 0, 0, 589933, 0, 0, 589934, 0, 0, 589935, 0, 0, 589936, 0, 0, 589937, 0, 0, 589938, 0, 0, 589939, 0, 0, 589940, 0, 0, 589941, 0, 0, 589942, 0, 0, 589943, 0, 0, 589944, 0, 0, 589945, 0, 0, 589946, 0, 0, 589947, 0, 0, 589948, 0, 0, 589949, 0, 0, 589950, 0, 0, 589951, 0, 0, 589952, 0, 0, 589953, 0, 0, 589954, 0, 0, 589955, 0, 0, 589956, 0, 0, 589957, 0, 0, 589958, 0, 0, 589959, 0, 0, 589960, 0, 0, 589961, 0, 0, 589962, 0, 0, 589963, 0, 0, 589964, 0, 0, 589965, 0, 0, 589966, 0, 0, 589967, 0, 0, 589968, 0, 0, 589969, 0, 0, 589970, 0, 0, 589971, 0, 0, 589972, 0, 0, 589973, 0, 0, 589974, 0, 0, 589975, 0, 0, 589988, 0, 0, 589989, 0, 0, 589990, 0, 0, 589991, 0, 0, 589992, 0, 0, 589993, 0, 0, 589994, 0, 0, 589995, 0, 0, 589996, 0, 0, 589997, 0, 0, 589998, 0, 0, 589999, 0, 0, 590000, 0, 0, 590001, 0, 0, 590002, 0, 0, 590003, 0, 0, 590007, 0, 0, 590008, 0, 0 )

[node name="Player" parent="." instance=ExtResource( 2 )]
position = Vector2( 212.735, 386.716 )

[node name="Sprite" parent="Player" index="0"]
position = Vector2( 0.0286865, -48.7936 )

[node name="Camera2D" parent="Player" index="2"]
position = Vector2( 6.36658, -185.519 )

[node name="Enemys" type="Node" parent="."]

[node name="Enemy" parent="Enemys" instance=ExtResource( 3 )]
position = Vector2( 1906.5, 658.404 )
speed = Vector2( 300, 1000 )

[node name="Enemy2" parent="Enemys" instance=ExtResource( 3 )]
position = Vector2( 3213.92, 941.614 )
speed = Vector2( 300, 1000 )

[node name="Enemy3" parent="Enemys" instance=ExtResource( 3 )]
position = Vector2( 5155.29, 935.307 )
speed = Vector2( 300, 1000 )

[node name="Enemy4" parent="Enemys" instance=ExtResource( 3 )]
position = Vector2( 6106.42, 941.614 )
speed = Vector2( 300, 1000 )

[node name="Enemy5" parent="Enemys" instance=ExtResource( 3 )]
position = Vector2( 7544.47, 941.614 )
speed = Vector2( 300, 1000 )

[node name="Enemy6" parent="Enemys" instance=ExtResource( 3 )]
position = Vector2( 9620.81, 704.462 )
speed = Vector2( 300, 1000 )

[node name="Enemy7" parent="Enemys" instance=ExtResource( 3 )]
position = Vector2( 10530.3, 932.784 )
speed = Vector2( 300, 1000 )

[node name="Enemy8" parent="Enemys" instance=ExtResource( 3 )]
position = Vector2( 12094.5, 612.376 )
speed = Vector2( 300, 1000 )

[node name="Enemy9" parent="Enemys" instance=ExtResource( 3 )]
position = Vector2( 14342.4, 618.683 )
speed = Vector2( 300, 1000 )

[node name="Enemy10" parent="Enemys" instance=ExtResource( 3 )]
position = Vector2( 13490.9, 216.282 )
speed = Vector2( 300, 1000 )

[node name="Enemy11" parent="Enemys" instance=ExtResource( 3 )]
position = Vector2( 9575.39, 213.759 )
speed = Vector2( 300, 1000 )

[node name="Enemy12" parent="Enemys" instance=ExtResource( 3 )]
position = Vector2( 7337.59, 71.2155 )
speed = Vector2( 300, 1000 )

[node name="Enemy13" parent="Enemys" instance=ExtResource( 3 )]
position = Vector2( 1413.83, 63.6469 )
speed = Vector2( 300, 1000 )

[node name="Area2D" parent="." instance=ExtResource( 5 )]
position = Vector2( 3889.52, 2818.8 )
sceneName = "LevelTemplate"

[node name="Area2D2" parent="." instance=ExtResource( 5 )]
position = Vector2( 8140.9, 2855.97 )
sceneName = "LevelTemplate"

[node name="Area2D3" parent="." instance=ExtResource( 5 )]
position = Vector2( 12726.7, 2789.07 )
sceneName = "LevelTemplate"

[node name="Area2D4" parent="." instance=ExtResource( 5 )]
position = Vector2( 15335.5, 2789.07 )
sceneName = "LevelTemplate"

[node name="CanvasLayer2" type="CanvasLayer" parent="."]

[node name="GUI" parent="CanvasLayer2" instance=ExtResource( 6 )]

[node name="Portal2D" parent="." instance=ExtResource( 7 )]
position = Vector2( 82.6613, -70.8203 )
next_scene = ExtResource( 8 )

[editable path="Player"]
